alembic==1.7.5
greenlet==1.1.2
importlib-metadata==4.11.1
importlib-resources==5.4.0
Mako==1.1.6
MarkupSafe==2.0.1
psycopg2-binary==2.8.6
six==1.16.0
SQLAlchemy==1.4.31
SQLAlchemy-Utils==0.38.2
zipp==3.7.0
